[gd_scene load_steps=3 format=2]

[ext_resource path="res://Art/Interface/Bar/Bar.tscn" type="PackedScene" id=1]
[ext_resource path="res://Scripts/PlayerHealthBar.tres.gd" type="Script" id=2]

[node name="Bar" instance=ExtResource( 1 )]

margin_right = 396.0
rect_scale = Vector2( 0.6, 0.6 )
script = ExtResource( 2 )

[node name="TextureProgress" parent="." index="0"]

_sections_unfolded = [ "Radial Fill", "Rect", "Textures" ]


